# Blender v2.79 (sub 0) OBJ File: 'rocks.blend'
# www.blender.org
o Rock02_Cube.001
v -0.548768 -1.012636 1.040212
v -0.560792 -0.133410 0.778350
v -0.690658 -1.198864 0.074551
v -0.265792 -0.122132 0.165155
v 0.513098 -0.944401 0.912594
v 0.408212 0.468703 0.906581
v 0.052716 -1.128736 -0.243640
v 0.185504 0.434350 0.210640
v -0.678126 -1.149072 0.586677
v -0.706960 -0.460382 0.988547
v -0.395509 -0.105440 0.464602
v -0.578830 -0.628091 0.146864
v -0.341398 -1.248811 -0.180951
v -0.049398 0.244382 0.106918
v 0.061920 -0.303819 -0.073804
v 0.521983 -1.141436 0.198309
v 0.423140 0.572842 0.530030
v 0.441383 -0.103240 1.027151
v -0.010317 -1.065544 1.013868
v -0.132396 0.180302 0.811176
v 0.026139 0.369536 0.411370
v -0.129851 -1.298625 0.384555
v -0.180791 -0.341385 1.077595
v 0.561891 -0.181629 0.413935
v -0.314442 -0.483576 -0.069671
v -0.749659 -0.557884 0.610786
vt 0.803348 0.342521
vt 0.665031 0.191122
vt 0.843034 0.207743
vt 0.139625 0.105891
vt 0.129354 0.285000
vt 0.027627 0.329213
vt 0.397570 0.240243
vt 0.477969 0.014879
vt 0.526576 0.185756
vt 0.733500 0.758685
vt 0.590339 0.838639
vt 0.526576 0.735816
vt 0.213916 0.751435
vt 0.453933 0.939577
vt 0.247724 0.956336
vt 0.947980 0.418239
vt 0.801042 0.480935
vt 1.000000 0.493333
vt 0.857756 0.532514
vt 0.727687 0.501255
vt 0.679461 0.449825
vt 0.000000 0.809052
vt 0.040494 0.956336
vt 0.007429 0.649203
vt 0.303072 0.567837
vt 0.147677 0.575183
vt 0.572176 0.560311
vt 0.777861 0.532514
vt 0.982057 0.560650
vt 0.979555 0.819565
vt 0.764661 0.925236
vt 0.526576 0.450591
vt 0.340921 0.542722
vt 0.091806 0.544999
vt 0.230508 0.049776
vt 0.000000 0.567837
vt 0.526576 0.000000
vt 0.621124 0.018450
vt 0.689462 0.340207
vt 0.589147 0.234021
vt 0.819894 0.023648
vt 1.000000 0.054136
vt 0.921092 0.331547
vt 0.991681 0.229622
vt 0.380350 0.000000
vt 0.472356 0.712286
vt 0.982057 1.000000
vn -0.7867 0.4979 -0.3650
vn -0.1456 0.2830 -0.9480
vn 0.9790 0.0948 0.1803
vn -0.2637 0.6023 0.7535
vn 0.2686 -0.9188 0.2893
vn -0.7467 0.6649 0.0186
vn -0.4951 0.8423 0.2133
vn -0.4406 0.8957 -0.0606
vn -0.7499 0.6563 -0.0837
vn -0.0781 -0.9483 0.3076
vn -0.2275 -0.9687 0.0997
vn 0.2602 -0.9485 -0.1809
vn 0.0411 -0.0780 0.9961
vn 0.1986 -0.0394 0.9793
vn -0.1046 0.4600 0.8817
vn 0.9986 -0.0472 0.0255
vn 0.6808 0.1404 -0.7189
vn 0.6670 0.1680 -0.7258
vn -0.1991 0.1479 -0.9687
vn -0.5573 0.2109 -0.8031
vn -0.6999 0.4530 -0.5522
vn -0.9815 0.1916 0.0054
vn -0.9432 -0.1267 0.3071
vn -0.9134 0.4071 -0.0018
vn -0.7848 0.4988 -0.3678
vn 0.1400 0.3355 -0.9316
vn 0.9822 0.1675 0.0853
vn -0.3893 0.4473 0.8052
vn 0.2954 -0.9200 0.2575
vn -0.5641 0.7940 -0.2264
vn -0.4887 0.8475 0.2073
vn -0.5654 0.8027 -0.1897
vn -0.8218 0.4249 -0.3797
vn -0.1176 -0.9238 0.3645
vn -0.1607 -0.9866 -0.0268
vn 0.1720 -0.9624 -0.2103
vn -0.1759 0.0416 0.9835
vn 0.1270 -0.1232 0.9842
vn -0.2653 0.1841 0.9464
vn 0.9809 0.0584 0.1853
vn 0.6748 0.1349 -0.7255
vn 0.7291 0.2331 -0.6435
vn -0.1070 0.2016 -0.9736
vn -0.6698 0.1299 -0.7311
vn -0.7984 0.3999 -0.4501
vn -0.9385 -0.1001 -0.3304
vn -0.9509 -0.2561 0.1736
vn -0.7859 0.4956 -0.3698
s off
f 11/1/1 12/2/1 26/3/1
f 14/4/2 15/5/2 25/6/2
f 24/7/3 6/8/3 18/9/3
f 23/10/4 2/11/4 10/12/4
f 22/13/5 5/14/5 19/15/5
f 11/1/6 20/16/6 21/17/6
f 21/17/7 6/18/7 17/19/7
f 8/20/8 21/17/8 17/19/8
f 14/21/9 11/1/9 21/17/9
f 9/22/10 19/15/10 1/23/10
f 3/24/11 22/13/11 9/22/11
f 7/25/12 22/13/12 13/26/12
f 23/10/13 1/27/13 19/28/13
f 5/29/14 23/10/14 19/28/14
f 18/30/15 20/31/15 23/10/15
f 24/7/16 5/32/16 16/33/16
f 15/5/17 16/33/17 7/34/17
f 8/35/18 24/7/18 15/5/18
f 25/6/19 7/34/19 13/36/19
f 12/2/20 13/37/20 3/38/20
f 4/39/21 25/40/21 12/2/21
f 9/41/22 12/2/22 3/38/22
f 1/42/23 26/3/23 9/41/23
f 2/43/24 26/3/24 10/44/24
f 11/1/25 4/39/25 12/2/25
f 14/4/26 8/35/26 15/5/26
f 24/7/27 17/45/27 6/8/27
f 23/10/28 20/31/28 2/11/28
f 22/13/29 16/46/29 5/14/29
f 11/1/30 2/43/30 20/16/30
f 21/17/31 20/16/31 6/18/31
f 8/20/32 14/21/32 21/17/32
f 14/21/33 4/39/33 11/1/33
f 9/22/34 22/13/34 19/15/34
f 3/24/35 13/26/35 22/13/35
f 7/25/36 16/46/36 22/13/36
f 23/10/37 10/12/37 1/27/37
f 5/29/38 18/30/38 23/10/38
f 18/30/39 6/47/39 20/31/39
f 24/7/40 18/9/40 5/32/40
f 15/5/41 24/7/41 16/33/41
f 8/35/42 17/45/42 24/7/42
f 25/6/43 15/5/43 7/34/43
f 12/2/44 25/40/44 13/37/44
f 4/39/45 14/21/45 25/40/45
f 9/41/46 26/3/46 12/2/46
f 1/42/47 10/44/47 26/3/47
f 2/43/48 11/1/48 26/3/48
