# Blender v2.79 (sub 0) OBJ File: ''
# www.blender.org
o Rock03_Cube.002
v -1.378169 -1.819575 1.433459
v -1.306794 0.591984 1.117918
v -2.015113 -1.468876 -1.738130
v -1.545941 1.518862 -1.965478
v 2.497675 -1.803802 2.262135
v 1.996132 0.899422 1.900489
v 1.870149 -1.575129 -1.627199
v 1.752902 1.725643 -1.686940
v -1.918168 -1.909120 -0.185851
v -1.244835 -0.535757 1.600148
v -1.561368 0.919537 -0.498440
v -2.059075 0.164885 -2.192058
v -0.133775 -1.682351 -2.224620
v 0.058499 1.937428 -2.120184
v 2.064475 0.293682 -2.000987
v 2.631683 -2.050578 0.413038
v 2.095073 1.245914 0.232414
v 2.759086 -0.242126 2.588464
v 0.417632 -1.852525 1.937110
v 0.243232 0.914469 1.748090
v 0.140536 1.503863 -0.157324
v 0.236952 -2.354227 -0.182325
v 0.648573 -0.282380 2.733316
v 3.199567 -0.191496 0.487368
v -0.181985 0.416510 -2.927846
v -2.094316 -0.440211 -0.428255
vt 0.755005 0.147424
vt 0.869158 0.008942
vt 0.880731 0.182810
vt 0.584657 0.761235
vt 0.400469 0.639111
vt 0.525591 0.592258
vt 0.400469 0.185411
vt 0.293790 0.099583
vt 0.337580 0.000000
vt 0.976915 0.842239
vt 0.854758 0.982805
vt 0.895772 0.784247
vt 0.197858 0.529846
vt 0.368375 0.714714
vt 0.176718 0.759126
vt 0.158258 0.327351
vt 0.000562 0.212122
vt 0.138073 0.139491
vt 0.325851 0.257422
vt 0.322984 0.447572
vt 0.026257 0.516583
vt 0.178538 0.516583
vt 0.348505 0.889790
vt 0.209118 0.963711
vt 0.000000 0.830321
vt 0.071850 1.000000
vt 0.026022 0.635678
vt 0.738323 0.822163
vt 0.738573 0.998587
vt 0.738778 0.623199
vt 0.145685 0.016918
vt 0.560558 0.162875
vt 0.730297 0.035866
vt 0.737246 0.188858
vt 0.694682 0.395255
vt 0.520950 0.422692
vt 0.450341 0.231300
vt 0.737246 0.526460
vt 0.615852 0.950209
vt 0.738323 0.767227
vt 0.738323 0.951210
vt 0.485417 0.920670
vt 1.000000 0.094583
vt 1.000000 0.246968
vt 0.826820 0.379503
vt 0.944834 0.397467
vt 0.741029 0.304798
vt 0.737246 0.000000
vt 0.426528 0.776099
vt 0.941166 0.998587
vt 0.368375 0.516583
vt 0.000000 0.370024
vt 0.882802 0.592258
vt 0.587674 0.000000
vt 0.400469 0.410565
vt 0.545109 0.592258
vn -0.9237 0.3676 0.1077
vn 0.3794 0.2762 -0.8830
vn 0.7663 0.6180 0.1755
vn -0.5036 0.4410 0.7429
vn 0.0675 -0.9722 0.2244
vn -0.3085 0.9039 0.2962
vn -0.0092 0.9792 0.2028
vn 0.0826 0.9702 0.2278
vn -0.2265 0.9491 0.2191
vn -0.2010 -0.9721 0.1208
vn -0.1747 -0.9501 -0.2585
vn 0.1492 -0.9309 -0.3333
vn -0.2704 -0.0963 0.9579
vn -0.1292 -0.4333 0.8919
vn 0.0475 0.5387 0.8412
vn 0.9496 -0.2944 0.1081
vn 0.8850 -0.2548 -0.3897
vn 0.7887 0.5616 -0.2503
vn 0.2895 -0.2166 -0.9323
vn -0.2695 -0.2645 -0.9260
vn -0.3827 0.2917 -0.8766
vn -0.9930 -0.1142 0.0296
vn -0.9480 0.0578 0.3129
vn -0.9142 0.1158 0.3883
vn -0.9344 0.3330 0.1262
vn 0.2737 0.4170 -0.8667
vn 0.7657 0.6192 0.1740
vn -0.4140 0.3386 0.8450
vn 0.0025 -0.9912 0.1325
vn -0.3579 0.9026 0.2393
vn 0.0678 0.9542 0.2915
vn 0.0675 0.9748 0.2125
vn -0.3661 0.8628 0.3486
vn -0.0840 -0.9680 0.2363
vn -0.1941 -0.9418 -0.2746
vn 0.1910 -0.9378 -0.2898
vn -0.4456 -0.3519 0.8232
vn 0.0710 -0.2154 0.9739
vn -0.0626 0.6216 0.7808
vn 0.9596 -0.2016 0.1963
vn 0.8815 -0.1791 -0.4370
vn 0.9654 0.2349 -0.1134
vn 0.3514 -0.2902 -0.8901
vn -0.3111 -0.3083 -0.8990
vn -0.2083 0.4842 -0.8498
vn -0.9988 -0.0358 -0.0323
vn -0.9221 -0.0472 0.3840
vn -0.9051 0.3659 0.2167
s off
f 11/1/1 12/2/1 26/3/1
f 25/4/2 8/5/2 15/6/2
f 24/7/3 6/8/3 18/9/3
f 20/10/4 10/11/4 23/12/4
f 16/13/5 19/14/5 22/15/5
f 21/16/6 2/17/6 20/18/6
f 17/19/7 20/18/7 6/8/7
f 8/20/8 21/16/8 17/19/8
f 4/21/9 21/16/9 14/22/9
f 22/15/10 1/23/10 9/24/10
f 13/25/11 9/24/11 3/26/11
f 7/27/12 22/15/12 13/25/12
f 19/28/13 10/11/13 1/29/13
f 5/30/14 23/12/14 19/28/14
f 6/8/15 23/31/15 18/9/15
f 24/32/16 5/33/16 16/34/16
f 7/35/17 24/32/17 16/34/17
f 15/36/18 17/37/18 24/32/18
f 13/38/19 15/36/19 7/35/19
f 12/39/20 13/40/20 3/41/20
f 4/42/21 25/4/21 12/39/21
f 26/3/22 3/43/22 9/44/22
f 10/45/23 9/44/23 1/46/23
f 2/47/24 26/3/24 10/45/24
f 11/1/25 4/48/25 12/2/25
f 25/4/26 14/49/26 8/5/26
f 24/7/27 17/19/27 6/8/27
f 20/10/28 2/50/28 10/11/28
f 16/13/29 5/51/29 19/14/29
f 21/16/30 11/52/30 2/17/30
f 17/19/31 21/16/31 20/18/31
f 8/20/32 14/22/32 21/16/32
f 4/21/33 11/52/33 21/16/33
f 22/15/34 19/14/34 1/23/34
f 13/25/35 22/15/35 9/24/35
f 7/27/36 16/13/36 22/15/36
f 19/28/37 23/12/37 10/11/37
f 5/30/38 18/53/38 23/12/38
f 6/8/39 20/18/39 23/31/39
f 24/32/40 18/54/40 5/33/40
f 7/35/41 15/36/41 24/32/41
f 15/36/42 8/55/42 17/37/42
f 13/38/43 25/56/43 15/36/43
f 12/39/44 25/4/44 13/40/44
f 4/42/45 14/49/45 25/4/45
f 26/3/46 12/2/46 3/43/46
f 10/45/47 26/3/47 9/44/47
f 2/47/48 11/1/48 26/3/48
